<?xml version="1.0" encoding="UTF-8"?>
<svg width="24px" height="24px" viewBox="0 0 24 24" version="1.1" xmlns="http://www.w3.org/2000/svg" xmlns:xlink="http://www.w3.org/1999/xlink">
    <defs></defs>
    <g id="App-Copy" stroke="none" stroke-width="1" fill="none" fill-rule="evenodd">
        <g id="5" transform="translate(-76.000000, -550.000000)">
            <g id="Group" transform="translate(16.000000, 185.000000)">
                <g id="Group-11">
                    <g id="Group-8-Copy">
                        <g id="Group-22" transform="translate(21.000000, 365.000000)">
                            <g id="Group-5-Copy">
                                <g id="Group-13">
                                    <g id="Group-10" transform="translate(11.000000, 0.000000)">
                                        <g id="Group-3" transform="translate(27.000000, 0.000000)">
                                            <rect id="Rectangle-path" x="1" y="0" width="24" height="24.001"></rect>
                                            <g id="Group" transform="translate(0.000000, 2.000000)" fill="#357BD9">
                                                <path d="M19.999,4.0005 C19.448,4.0005 18.999,3.5515 18.999,3.0005 C18.999,2.4495 19.448,2.0005 19.999,2.0005 C20.55,2.0005 20.999,2.4495 20.999,3.0005 C20.999,3.5515 20.55,4.0005 19.999,4.0005 M22.999,3.0005 C22.999,4.6545 21.653,6.0005 19.999,6.0005 C18.345,6.0005 16.999,4.6545 16.999,3.0005 C16.999,1.3455 18.345,0.0005 19.999,0.0005 C21.653,0.0005 22.999,1.3455 22.999,3.0005 Z M19.999,6.0005 C22.756,6.0005 24.999,8.2435 24.999,11.0005 L24.999,13.0005 C24.999,13.5515 24.551,14.0005 23.999,14.0005 L22.999,14.0005 L22.999,18.0005 C22.999,18.5515 22.551,19.0005 21.999,19.0005 L17.999,19.0005 C17.447,19.0005 16.999,18.5515 16.999,18.0005 L16.999,14.0005 L15.999,14.0005 C15.447,14.0005 14.999,13.5515 14.999,13.0005 L14.999,11.0005 C14.999,8.2435 17.242,6.0005 19.999,6.0005 Z M22.999,12.0005 L22.999,11.0005 C22.999,9.3455 21.653,8.0005 19.999,8.0005 C18.345,8.0005 16.999,9.3455 16.999,11.0005 L16.999,12.0005 L17.999,12.0005 C18.551,12.0005 18.999,12.4485 18.999,13.0005 L18.999,17.0005 L20.999,17.0005 L20.999,13.0005 C20.999,12.4485 21.447,12.0005 21.999,12.0005 L22.999,12.0005 Z M8.999,3.0005 C8.999,4.6545 7.653,6.0005 5.999,6.0005 C4.345,6.0005 2.999,4.6545 2.999,3.0005 C2.999,1.3455 4.345,0.0005 5.999,0.0005 C7.653,0.0005 8.999,1.3455 8.999,3.0005 Z M5.999,4.0005 C6.55,4.0005 6.999,3.5515 6.999,3.0005 C6.999,2.4495 6.55,2.0005 5.999,2.0005 C5.448,2.0005 4.999,2.4495 4.999,3.0005 C4.999,3.5515 5.448,4.0005 5.999,4.0005 Z M9.454,8.8015 C10.05,11.0515 9.84,10.2405 10.969,14.7575 C11.043,15.0525 10.978,15.3655 10.794,15.6065 C10.609,15.8485 10.325,15.9935 10.021,16.0005 C10.021,16.0005 9.276,16.0155 8.689,16.0185 C8.498,16.5915 8.21,17.4825 7.953,18.3015 C7.822,18.7175 7.436,19.0005 6.999,19.0005 L4.999,19.0005 C4.562,19.0005 4.176,18.7175 4.045,18.3015 C3.788,17.4825 3.501,16.5915 3.31,16.0185 C2.722,16.0155 1.978,16.0005 1.978,16.0005 C1.673,15.9935 1.389,15.8485 1.204,15.6065 C1.019,15.3655 0.955,15.0525 1.029,14.7575 C2.215,10.0125 1.905,11.2275 2.557,8.7465 C2.874,7.1795 4.327,6.0005 5.999,6.0005 C7.671,6.0005 9.124,7.1795 9.454,8.8015 Z M7.998,14.0005 C8.056,14.0005 8.494,14.0205 8.723,14.0185 L8.48,13.0465 C8.027,11.2305 8.027,11.2305 7.759,10.2145 L7.506,9.2545 C7.355,8.5155 6.712,8.0005 5.999,8.0005 C5.286,8.0005 4.643,8.5155 4.504,9.1995 L4.239,10.2145 C3.971,11.2305 3.971,11.2305 3.518,13.0465 L3.275,14.0185 C3.505,14.0195 4.003,14.0005 4.081,14.0005 C4.738,14.0005 4.822,14.1195 5.732,17.0005 L6.266,17.0005 C7.214,14.0005 7.264,14.0005 7.998,14.0005 Z" id="Combined-Shape"></path>
                                            </g>
                                        </g>
                                    </g>
                                </g>
                            </g>
                        </g>
                    </g>
                </g>
            </g>
        </g>
    </g>
</svg>
