<?xml version="1.0" encoding="UTF-8"?>
<svg width="52px" height="52px" viewBox="0 0 52 52" version="1.1" xmlns="http://www.w3.org/2000/svg" xmlns:xlink="http://www.w3.org/1999/xlink">
    <!-- Generator: Sketch 49.3 (51167) - http://www.bohemiancoding.com/sketch -->
    <title>icon-rules-3@3x</title>
    <desc>Created with Sketch.</desc>
    <defs></defs>
    <g id="App-Copy" stroke="none" stroke-width="1" fill="none" fill-rule="evenodd">
        <g id="Artboard-2" transform="translate(-194.000000, -44.000000)">
            <g id="icon-rules-3" transform="translate(194.000000, 44.000000)">
                <circle id="Oval-2" stroke="#357BD9" stroke-width="2" cx="26" cy="26" r="25"></circle>
                <g id="noun_Communication_1276867" transform="translate(10.000000, 10.000000)" fill="#000000" fill-rule="nonzero">
                    <g id="Group">
                        <path d="M29.2443871,7.02141935 L28.3907097,7.60154839 C30.0763871,10.084129 30.9677419,12.9883871 30.9677419,16 C30.9677419,24.2529032 24.2534194,30.9677419 16,30.9677419 C13.1736774,30.9677419 10.4469677,30.1734194 8.06967742,28.6833548 L9.89109677,28.379871 L9.72129032,27.3615484 L5.93548387,27.9927742 L7.79612903,31.7145806 L8.71948387,31.2526452 L8.03148387,29.876129 C10.4495484,31.2691613 13.1809032,32 16,32 C24.8221935,32 32,24.8227097 32,16 C32,12.7803871 31.0472258,9.67587097 29.2443871,7.02141935 Z" id="Shape"></path>
                        <path d="M20.6451613,24.2580645 L20.6451613,21.1612903 L24.7741935,21.1612903 L24.7741935,17.2371613 C24.7741935,15.9752258 24.1021935,14.788129 23.0203871,14.1388387 L22.6642581,13.9251613 C23.3285161,13.2696774 23.7419355,12.3602581 23.7419355,11.3548387 C23.7419355,9.36258065 22.1212903,7.74193548 20.1290323,7.74193548 C18.2962581,7.74193548 16.7814194,9.11483871 16.5501935,10.8851613 C16.3705806,10.8572903 16.1873548,10.8387097 16,10.8387097 C15.8126452,10.8387097 15.6294194,10.8572903 15.4498065,10.8851613 C15.2185806,9.11483871 13.7037419,7.74193548 11.8709677,7.74193548 C9.87870968,7.74193548 8.25806452,9.36258065 8.25806452,11.3548387 C8.25806452,12.3602581 8.67148387,13.2696774 9.33625806,13.9251613 L8.98012903,14.1388387 C7.89780645,14.788129 7.22580645,15.9757419 7.22580645,17.2371613 L7.22580645,21.1612903 L11.3548387,21.1612903 L11.3548387,24.2580645 L20.6451613,24.2580645 Z M19.6129032,23.2258065 L12.3870968,23.2258065 L12.3870968,20.3339355 C12.3870968,19.4327742 12.8670968,18.5847742 13.6402581,18.1207742 L14.3809032,17.6763871 C14.8686452,17.9225806 15.4172903,18.0645161 16,18.0645161 C16.5827097,18.0645161 17.1313548,17.9225806 17.6196129,17.6769032 L18.3602581,18.1212903 C19.1329032,18.5852903 19.6129032,19.4327742 19.6129032,20.3339355 L19.6129032,23.2258065 Z M22.4887742,15.024 C23.2619355,15.488 23.7419355,16.336 23.7419355,17.2371613 L23.7419355,20.1290323 L20.6317419,20.1290323 C20.5630968,18.9455484 19.9138065,17.8498065 18.8913548,17.236129 L18.5352258,17.0224516 C19.0947097,16.4707097 19.4730323,15.7378065 19.5793548,14.9197419 C19.7615484,14.948129 19.9447742,14.9677419 20.1290323,14.9677419 C20.7117419,14.9677419 21.2603871,14.8258065 21.7486452,14.580129 L22.4887742,15.024 Z M20.1290323,8.77419355 C21.552,8.77419355 22.7096774,9.93187097 22.7096774,11.3548387 C22.7096774,12.7778065 21.552,13.9354839 20.1290323,13.9354839 C19.9385806,13.9354839 19.7486452,13.9055484 19.5602581,13.8616774 C19.3656774,12.6859355 18.603871,11.7016774 17.563871,11.1994839 C17.6459355,9.85032258 18.7592258,8.77419355 20.1290323,8.77419355 Z M18.5806452,14.4516129 C18.5806452,15.8745806 17.4229677,17.0322581 16,17.0322581 C14.5770323,17.0322581 13.4193548,15.8745806 13.4193548,14.4516129 C13.4193548,13.0286452 14.5770323,11.8709677 16,11.8709677 C17.4229677,11.8709677 18.5806452,13.0286452 18.5806452,14.4516129 Z M9.29032258,11.3548387 C9.29032258,9.93187097 10.448,8.77419355 11.8709677,8.77419355 C13.2407742,8.77419355 14.3540645,9.85032258 14.436129,11.2 C13.396129,11.7021935 12.6343226,12.6859355 12.4397419,13.8621935 C12.2513548,13.9055484 12.0614194,13.9354839 11.8709677,13.9354839 C10.448,13.9354839 9.29032258,12.7778065 9.29032258,11.3548387 Z M8.25806452,17.2371613 C8.25806452,16.3354839 8.73806452,15.4874839 9.51122581,15.024 L10.251871,14.5796129 C10.7396129,14.8258065 11.2882581,14.9677419 11.8709677,14.9677419 C12.0552258,14.9677419 12.2384516,14.948129 12.4211613,14.9197419 C12.5274839,15.7372903 12.9058065,16.4701935 13.4652903,17.0224516 L13.1091613,17.236129 C12.0861935,17.8503226 11.4374194,18.9455484 11.3687742,20.1290323 L8.25806452,20.1290323 L8.25806452,17.2371613 Z" id="Shape"></path>
                        <path d="M16,27.8709677 C18.3065806,27.8709677 20.5460645,27.2056774 22.4753548,25.9473548 L21.9112258,25.0823226 C20.1501935,26.2312258 18.1058065,26.8387097 16,26.8387097 C10.0232258,26.8387097 5.16129032,21.9762581 5.16129032,16 C5.16129032,10.0232258 10.0232258,5.16129032 16,5.16129032 C21.9767742,5.16129032 26.8387097,10.0232258 26.8387097,16 C26.8387097,19.2449032 25.4018065,22.292129 22.8970323,24.3607742 L23.5540645,25.1571613 C26.2978065,22.891871 27.8709677,19.5540645 27.8709677,16 C27.8709677,9.45445161 22.5455484,4.12903226 16,4.12903226 C9.45445161,4.12903226 4.12903226,9.45445161 4.12903226,16 C4.12903226,22.5460645 9.45445161,27.8709677 16,27.8709677 Z" id="Shape"></path>
                        <path d="M1.03225806,16 C1.03225806,7.74658065 7.74658065,1.03225806 16,1.03225806 C18.8263226,1.03225806 21.5530323,1.82658065 23.9298065,3.31664516 L22.1083871,3.62012903 L22.2781935,4.63845161 L26.0645161,4.00722581 L24.203871,0.285419355 L23.2805161,0.747354839 L23.9685161,2.12387097 C21.5504516,0.73083871 18.8196129,0 16,0 C7.17780645,0 0,7.17780645 0,16 C0,18.4263226 0.531096774,20.7592258 1.57832258,22.9336774 L2.5083871,22.4861935 C1.52877419,20.452129 1.03225806,18.2699355 1.03225806,16 Z" id="Shape"></path>
                        <path d="M2.14193548,24.0005161 C2.33393548,24.331871 2.5403871,24.6606452 2.7556129,24.9785806 L3.60980645,24.3989677 C3.408,24.1016774 3.21496774,23.7935484 3.03535484,23.483871 L2.14193548,24.0005161 Z" id="Shape"></path>
                    </g>
                </g>
            </g>
        </g>
    </g>
</svg>